<?xml version="1.0" encoding="UTF-8" standalone="no"?>
<!-- Created with Inkscape (http://www.inkscape.org/) -->

<svg
   xmlns:dc="http://purl.org/dc/elements/1.1/"
   xmlns:cc="http://creativecommons.org/ns#"
   xmlns:rdf="http://www.w3.org/1999/02/22-rdf-syntax-ns#"
   xmlns:svg="http://www.w3.org/2000/svg"
   xmlns="http://www.w3.org/2000/svg"
   xmlns:xlink="http://www.w3.org/1999/xlink"
   xmlns:sodipodi="http://sodipodi.sourceforge.net/DTD/sodipodi-0.dtd"
   xmlns:inkscape="http://www.inkscape.org/namespaces/inkscape"
   width="370.57144"
   height="144.57143"
   id="svg47053"
   version="1.1"
   inkscape:version="0.48.4 r9939"
   sodipodi:docname="time-notime.svg"
   inkscape:export-filename="/home/eeva/work/prez-2014-ICCSA/illustrations/space-newton.png"
   inkscape:export-xdpi="194"
   inkscape:export-ydpi="194">
  <defs
     id="defs47055">
    <marker
       inkscape:stockid="StopM"
       orient="auto"
       refY="0.0"
       refX="0.0"
       id="StopM"
       style="overflow:visible">
      <path
         id="path8447"
         d="M 0.0,5.65 L 0.0,-5.65"
         style="fill:none;fill-opacity:0.75000000;fill-rule:evenodd;stroke:#000000;stroke-width:1.0pt"
         transform="scale(0.4)" />
    </marker>
    <marker
       inkscape:stockid="Arrow2Mend"
       orient="auto"
       refY="0.0"
       refX="0.0"
       id="Arrow2Mend"
       style="overflow:visible;">
      <path
         id="path8302"
         style="fill-rule:evenodd;stroke-width:0.62500000;stroke-linejoin:round;"
         d="M 8.7185878,4.0337352 L -2.2072895,0.016013256 L 8.7185884,-4.0017078 C 6.9730900,-1.6296469 6.9831476,1.6157441 8.7185878,4.0337352 z "
         transform="scale(0.6) rotate(180) translate(0,0)" />
    </marker>
    <marker
       inkscape:stockid="Arrow2Mstart"
       orient="auto"
       refY="0.0"
       refX="0.0"
       id="Arrow2Mstart"
       style="overflow:visible">
      <path
         id="path8299"
         style="fill-rule:evenodd;stroke-width:0.62500000;stroke-linejoin:round"
         d="M 8.7185878,4.0337352 L -2.2072895,0.016013256 L 8.7185884,-4.0017078 C 6.9730900,-1.6296469 6.9831476,1.6157441 8.7185878,4.0337352 z "
         transform="scale(0.6) translate(0,0)" />
    </marker>
    <marker
       inkscape:stockid="Arrow1Mend"
       orient="auto"
       refY="0.0"
       refX="0.0"
       id="Arrow1Mend"
       style="overflow:visible;">
      <path
         id="path8284"
         d="M 0.0,0.0 L 5.0,-5.0 L -12.5,0.0 L 5.0,5.0 L 0.0,0.0 z "
         style="fill-rule:evenodd;stroke:#000000;stroke-width:1.0pt;"
         transform="scale(0.4) rotate(180) translate(10,0)" />
    </marker>
    <marker
       inkscape:stockid="Arrow1Mstart"
       orient="auto"
       refY="0.0"
       refX="0.0"
       id="Arrow1Mstart"
       style="overflow:visible">
      <path
         id="path8281"
         d="M 0.0,0.0 L 5.0,-5.0 L -12.5,0.0 L 5.0,5.0 L 0.0,0.0 z "
         style="fill-rule:evenodd;stroke:#000000;stroke-width:1.0pt"
         transform="scale(0.4) translate(10,0)" />
    </marker>
    <marker
       inkscape:stockid="Arrow1Lstart"
       orient="auto"
       refY="0.0"
       refX="0.0"
       id="Arrow1Lstart"
       style="overflow:visible">
      <path
         id="path8275"
         d="M 0.0,0.0 L 5.0,-5.0 L -12.5,0.0 L 5.0,5.0 L 0.0,0.0 z "
         style="fill-rule:evenodd;stroke:#000000;stroke-width:1.0pt"
         transform="scale(0.8) translate(12.5,0)" />
    </marker>
    <clipPath
       clipPathUnits="userSpaceOnUse"
       id="clipPath53339">
      <rect
         style="fill:#ff0000;stroke:none"
         id="rect53341"
         width="57.455952"
         height="57.455952"
         x="280.01126"
         y="120.37136" />
    </clipPath>
    <clipPath
       clipPathUnits="userSpaceOnUse"
       id="clipPath6754">
      <rect
         style="fill:#ff0000;fill-opacity:1;stroke:none"
         id="rect6756"
         width="119.64286"
         height="119.64286"
         x="10.285713"
         y="85.362175" />
    </clipPath>
  </defs>
  <sodipodi:namedview
     id="base"
     pagecolor="#ffffff"
     bordercolor="#666666"
     borderopacity="1.0"
     inkscape:pageopacity="0.0"
     inkscape:pageshadow="2"
     inkscape:zoom="2.8"
     inkscape:cx="181.23688"
     inkscape:cy="72.040616"
     inkscape:document-units="px"
     inkscape:current-layer="layer1"
     showgrid="false"
     fit-margin-top="10"
     fit-margin-left="10"
     fit-margin-right="10"
     fit-margin-bottom="10"
     inkscape:window-width="1920"
     inkscape:window-height="1080"
     inkscape:window-x="0"
     inkscape:window-y="768"
     inkscape:window-maximized="0" />
  <metadata
     id="metadata47058">
    <rdf:RDF>
      <cc:Work
         rdf:about="">
        <dc:format>image/svg+xml</dc:format>
        <dc:type
           rdf:resource="http://purl.org/dc/dcmitype/StillImage" />
        <dc:title></dc:title>
      </cc:Work>
    </rdf:RDF>
  </metadata>
  <g
     inkscape:label="Calque 1"
     inkscape:groupmode="layer"
     id="layer1"
     transform="translate(2.2857141,-72.933609)">
    <rect
       style="fill:none;stroke:#000000;stroke-width:1;stroke-linecap:round;stroke-linejoin:round;stroke-miterlimit:4;stroke-dasharray:3,3;stroke-dashoffset:0;opacity:1"
       id="rect48129"
       width="123.57143"
       height="123.57143"
       x="8.2142859"
       y="83.433609" />
    <rect
       y="83.433609"
       x="234.21429"
       height="123.57143"
       width="123.57143"
       id="rect48131"
       style="fill:none;stroke:#000000;stroke-width:1;stroke-linecap:round;stroke-linejoin:round;stroke-miterlimit:4;stroke-dasharray:none;stroke-dashoffset:0" />
    <path
       style="fill:none;stroke:#000000;stroke-width:0.95024008px;stroke-linecap:butt;stroke-linejoin:miter;stroke-opacity:1;marker-start:url(#Arrow1Mstart);marker-end:url(#Arrow1Mend)"
       d="m 140.10713,145.21932 85.21431,0"
       id="path48133"
       inkscape:connector-curvature="0" />
    <g
       id="layer1-0"
       transform="matrix(0.24162711,0,0,0.24162711,206.10264,53.898772)">
      <path
         d="M 372.1,593.34 V 162.54"
         id="path3132"
         inkscape:connector-curvature="0"
         style="fill:none;stroke:#000000;stroke-width:12.34799957px;stroke-linecap:square" />
      <use
         x="0"
         y="0"
         width="744.09448"
         height="1052.3622"
         transform="matrix(0,1,-1,0,749.99,5.837)"
         xlink:href="#path3132"
         id="use4103" />
      <use
         x="0"
         y="0"
         width="744.09448"
         height="1052.3622"
         transform="matrix(0.86603,-0.5,0.5,0.86603,-139.17,236.69)"
         xlink:href="#path3132"
         id="use5074" />
      <use
         x="0"
         y="0"
         width="744.09448"
         height="1052.3622"
         transform="matrix(0.5,-0.86603,0.86603,0.5,-141.31,511.22)"
         xlink:href="#path3132"
         id="use5076" />
      <use
         x="0"
         y="0"
         width="744.09448"
         height="1052.3622"
         transform="matrix(0.5,0.86603,-0.86603,0.5,513.3,-133.28)"
         xlink:href="#path3132"
         id="use6051" />
      <use
         x="0"
         y="0"
         width="744.09448"
         height="1052.3622"
         transform="matrix(0.86603,0.5,-0.5,0.86603,238.77,-135.42)"
         xlink:href="#path3132"
         id="use6053" />
      <path
         d="m 727.86,489.51 a 177.145,177.145 0 1 1 -354.29,0 177.145,177.145 0 1 1 354.29,0 z"
         transform="matrix(1.0321,0,0,0.99025,-196.34,-106.79)"
         id="path2159"
         inkscape:connector-curvature="0"
         style="fill:#ffffff;fill-rule:evenodd" />
      <path
         d="m 355.45,362.61 124.9,115.97"
         id="path7024"
         inkscape:connector-curvature="0"
         style="fill:none;stroke:#000000;stroke-width:10;stroke-linecap:square" />
      <path
         d="M 316.24,377.94 H 427.85"
         id="path7995"
         inkscape:connector-curvature="0"
         style="fill:none;stroke:#000000;stroke-width:0.001" />
      <use
         x="0"
         y="0"
         width="744.09448"
         height="1052.3622"
         transform="matrix(0,-1,1,0,-5.8937,749.99)"
         xlink:href="#path7995"
         id="use7997" />
      <path
         d="m 392.64,371.05 -96.38,31.84"
         id="path8035"
         inkscape:connector-curvature="0"
         style="fill:none;stroke:#000000;stroke-width:14.8380003;stroke-linecap:square" />
      <path
         d="m 373.08,377.94 a 1.0312,1.0312 0 1 1 -2.06,0 1.0312,1.0312 0 1 1 2.06,0 z"
         transform="matrix(14.176,0,0,14.176,-4902.2,-4979.8)"
         id="path3145"
         inkscape:connector-curvature="0"
         style="fill-rule:evenodd" />
    </g>
    <g
       transform="matrix(0.24162711,0,0,0.24162711,-19.89736,53.898772)"
       id="g5914">
      <path
         style="fill:none;stroke:#000000;stroke-width:12.34799957px;stroke-linecap:square"
         inkscape:connector-curvature="0"
         id="path5916"
         d="M 372.1,593.34 V 162.54" />
      <use
         id="use5918"
         xlink:href="#path3132"
         transform="matrix(0,1,-1,0,749.99,5.837)"
         height="1052.3622"
         width="744.09448"
         y="0"
         x="0" />
      <use
         id="use5920"
         xlink:href="#path3132"
         transform="matrix(0.86603,-0.5,0.5,0.86603,-139.17,236.69)"
         height="1052.3622"
         width="744.09448"
         y="0"
         x="0" />
      <use
         id="use5922"
         xlink:href="#path3132"
         transform="matrix(0.5,-0.86603,0.86603,0.5,-141.31,511.22)"
         height="1052.3622"
         width="744.09448"
         y="0"
         x="0" />
      <use
         id="use5924"
         xlink:href="#path3132"
         transform="matrix(0.5,0.86603,-0.86603,0.5,513.3,-133.28)"
         height="1052.3622"
         width="744.09448"
         y="0"
         x="0" />
      <use
         id="use5926"
         xlink:href="#path3132"
         transform="matrix(0.86603,0.5,-0.5,0.86603,238.77,-135.42)"
         height="1052.3622"
         width="744.09448"
         y="0"
         x="0" />
      <path
         style="fill:#ffffff;fill-rule:evenodd"
         inkscape:connector-curvature="0"
         id="path5928"
         transform="matrix(1.0321,0,0,0.99025,-196.34,-106.79)"
         d="m 727.86,489.51 a 177.145,177.145 0 1 1 -354.29,0 177.145,177.145 0 1 1 354.29,0 z" />
      <path
         style="fill:none;stroke:#000000;stroke-width:10;stroke-linecap:square"
         inkscape:connector-curvature="0"
         id="path5930"
         d="m 355.45,362.61 124.9,115.97" />
      <path
         style="fill:none;stroke:#000000;stroke-width:0.001"
         inkscape:connector-curvature="0"
         id="path5932"
         d="M 316.24,377.94 H 427.85" />
      <use
         id="use5934"
         xlink:href="#path7995"
         transform="matrix(0,-1,1,0,-5.8937,749.99)"
         height="1052.3622"
         width="744.09448"
         y="0"
         x="0" />
      <path
         style="fill:none;stroke:#000000;stroke-width:14.8380003;stroke-linecap:square"
         inkscape:connector-curvature="0"
         id="path5936"
         d="m 392.64,371.05 -96.38,31.84" />
      <path
         style="fill-rule:evenodd"
         inkscape:connector-curvature="0"
         id="path5938"
         transform="matrix(14.176,0,0,14.176,-4902.2,-4979.8)"
         d="m 373.08,377.94 a 1.0312,1.0312 0 1 1 -2.06,0 1.0312,1.0312 0 1 1 2.06,0 z" />
    </g>
    <g
       id="g6748"
       clip-path="url(#clipPath6754)">
      <path
         transform="translate(-2.2857141,72.933609)"
         inkscape:connector-curvature="0"
         id="path5940"
         d="M 10,9.9285692 133.92857,133.85714"
         style="fill:#ff0000;stroke:#ff0000;stroke-width:10;stroke-linecap:butt;stroke-linejoin:miter;stroke-miterlimit:4;stroke-opacity:1;stroke-dasharray:none" />
      <path
         style="fill:#ff0000;stroke:#ff0000;stroke-width:10;stroke-linecap:butt;stroke-linejoin:miter;stroke-miterlimit:4;stroke-opacity:1;stroke-dasharray:none"
         d="M 131.64286,82.862179 7.7142855,206.79075"
         id="path6746"
         inkscape:connector-curvature="0" />
    </g>
  </g>
</svg>
