<?xml version="1.0" encoding="UTF-8" standalone="no"?>
<!-- Created with Inkscape (http://www.inkscape.org/) -->

<svg
   xmlns:dc="http://purl.org/dc/elements/1.1/"
   xmlns:cc="http://creativecommons.org/ns#"
   xmlns:rdf="http://www.w3.org/1999/02/22-rdf-syntax-ns#"
   xmlns:svg="http://www.w3.org/2000/svg"
   xmlns="http://www.w3.org/2000/svg"
   xmlns:sodipodi="http://sodipodi.sourceforge.net/DTD/sodipodi-0.dtd"
   xmlns:inkscape="http://www.inkscape.org/namespaces/inkscape"
   width="370.57144"
   height="144.57143"
   id="svg47053"
   version="1.1"
   inkscape:version="0.48.4 r9939"
   sodipodi:docname="time-discrete.svg"
   inkscape:export-filename="/home/eeva/work/prez-2014-ICCSA/illustrations/time-discrete.png"
   inkscape:export-xdpi="194"
   inkscape:export-ydpi="194">
  <defs
     id="defs47055">
    <marker
       inkscape:stockid="Arrow2Send"
       orient="auto"
       refY="0.0"
       refX="0.0"
       id="Arrow2Send"
       style="overflow:visible;">
      <path
         id="path8308"
         style="fill-rule:evenodd;stroke-width:0.62500000;stroke-linejoin:round;"
         d="M 8.7185878,4.0337352 L -2.2072895,0.016013256 L 8.7185884,-4.0017078 C 6.9730900,-1.6296469 6.9831476,1.6157441 8.7185878,4.0337352 z "
         transform="scale(0.3) rotate(180) translate(-2.3,0)" />
    </marker>
    <marker
       inkscape:stockid="DotM"
       orient="auto"
       refY="0.0"
       refX="0.0"
       id="DotM"
       style="overflow:visible">
      <path
         id="path8339"
         d="M -2.5,-1.0 C -2.5,1.7600000 -4.7400000,4.0 -7.5,4.0 C -10.260000,4.0 -12.5,1.7600000 -12.5,-1.0 C -12.5,-3.7600000 -10.260000,-6.0 -7.5,-6.0 C -4.7400000,-6.0 -2.5,-3.7600000 -2.5,-1.0 z "
         style="fill-rule:evenodd;stroke:#000000;stroke-width:1.0pt"
         transform="scale(0.4) translate(7.4, 1)" />
    </marker>
    <marker
       inkscape:stockid="DotL"
       orient="auto"
       refY="0.0"
       refX="0.0"
       id="DotL"
       style="overflow:visible">
      <path
         id="path8336"
         d="M -2.5,-1.0 C -2.5,1.7600000 -4.7400000,4.0 -7.5,4.0 C -10.260000,4.0 -12.5,1.7600000 -12.5,-1.0 C -12.5,-3.7600000 -10.260000,-6.0 -7.5,-6.0 C -4.7400000,-6.0 -2.5,-3.7600000 -2.5,-1.0 z "
         style="fill-rule:evenodd;stroke:#000000;stroke-width:1.0pt"
         transform="scale(0.8) translate(7.4, 1)" />
    </marker>
    <marker
       inkscape:stockid="StopM"
       orient="auto"
       refY="0.0"
       refX="0.0"
       id="StopM"
       style="overflow:visible">
      <path
         id="path8447"
         d="M 0.0,5.65 L 0.0,-5.65"
         style="fill:none;fill-opacity:0.75000000;fill-rule:evenodd;stroke:#000000;stroke-width:1.0pt"
         transform="scale(0.4)" />
    </marker>
    <marker
       inkscape:stockid="Arrow2Mend"
       orient="auto"
       refY="0.0"
       refX="0.0"
       id="Arrow2Mend"
       style="overflow:visible;">
      <path
         id="path8302"
         style="fill-rule:evenodd;stroke-width:0.62500000;stroke-linejoin:round;"
         d="M 8.7185878,4.0337352 L -2.2072895,0.016013256 L 8.7185884,-4.0017078 C 6.9730900,-1.6296469 6.9831476,1.6157441 8.7185878,4.0337352 z "
         transform="scale(0.6) rotate(180) translate(0,0)" />
    </marker>
    <marker
       inkscape:stockid="Arrow2Mstart"
       orient="auto"
       refY="0.0"
       refX="0.0"
       id="Arrow2Mstart"
       style="overflow:visible">
      <path
         id="path8299"
         style="fill-rule:evenodd;stroke-width:0.62500000;stroke-linejoin:round"
         d="M 8.7185878,4.0337352 L -2.2072895,0.016013256 L 8.7185884,-4.0017078 C 6.9730900,-1.6296469 6.9831476,1.6157441 8.7185878,4.0337352 z "
         transform="scale(0.6) translate(0,0)" />
    </marker>
    <marker
       inkscape:stockid="Arrow1Mend"
       orient="auto"
       refY="0.0"
       refX="0.0"
       id="Arrow1Mend"
       style="overflow:visible;">
      <path
         id="path8284"
         d="M 0.0,0.0 L 5.0,-5.0 L -12.5,0.0 L 5.0,5.0 L 0.0,0.0 z "
         style="fill-rule:evenodd;stroke:#000000;stroke-width:1.0pt;"
         transform="scale(0.4) rotate(180) translate(10,0)" />
    </marker>
    <marker
       inkscape:stockid="Arrow1Mstart"
       orient="auto"
       refY="0.0"
       refX="0.0"
       id="Arrow1Mstart"
       style="overflow:visible">
      <path
         id="path8281"
         d="M 0.0,0.0 L 5.0,-5.0 L -12.5,0.0 L 5.0,5.0 L 0.0,0.0 z "
         style="fill-rule:evenodd;stroke:#000000;stroke-width:1.0pt"
         transform="scale(0.4) translate(10,0)" />
    </marker>
    <marker
       inkscape:stockid="Arrow1Lstart"
       orient="auto"
       refY="0.0"
       refX="0.0"
       id="Arrow1Lstart"
       style="overflow:visible">
      <path
         id="path8275"
         d="M 0.0,0.0 L 5.0,-5.0 L -12.5,0.0 L 5.0,5.0 L 0.0,0.0 z "
         style="fill-rule:evenodd;stroke:#000000;stroke-width:1.0pt"
         transform="scale(0.8) translate(12.5,0)" />
    </marker>
    <clipPath
       clipPathUnits="userSpaceOnUse"
       id="clipPath53339">
      <rect
         style="fill:#ff0000;stroke:none"
         id="rect53341"
         width="57.455952"
         height="57.455952"
         x="280.01126"
         y="120.37136" />
    </clipPath>
    <clipPath
       clipPathUnits="userSpaceOnUse"
       id="clipPath53699">
      <rect
         style="fill:#ff0000;fill-opacity:1;stroke:none"
         id="rect53701"
         width="119.28571"
         height="119.64286"
         x="236.28571"
         y="85.362175" />
    </clipPath>
    <clipPath
       clipPathUnits="userSpaceOnUse"
       id="clipPath55190">
      <rect
         style="fill:#ff0000;fill-opacity:1;stroke:none"
         id="rect55192"
         width="120.20815"
         height="120.20815"
         x="9.8361168"
         y="84.922516" />
    </clipPath>
    <clipPath
       clipPathUnits="userSpaceOnUse"
       id="clipPath59906">
      <rect
         style="fill:#ff0000;fill-opacity:1;stroke:none"
         id="rect59908"
         width="119.64286"
         height="119.64286"
         x="10.214286"
         y="85.362175" />
    </clipPath>
    <clipPath
       clipPathUnits="userSpaceOnUse"
       id="clipPath60254">
      <rect
         style="fill:#ff0000;fill-opacity:1;stroke:none"
         id="rect60256"
         width="119.28571"
         height="119.64286"
         x="236.28571"
         y="85.362175" />
    </clipPath>
  </defs>
  <sodipodi:namedview
     id="base"
     pagecolor="#ffffff"
     bordercolor="#666666"
     borderopacity="1.0"
     inkscape:pageopacity="0.0"
     inkscape:pageshadow="2"
     inkscape:zoom="2.8"
     inkscape:cx="171.32428"
     inkscape:cy="68.469187"
     inkscape:document-units="px"
     inkscape:current-layer="layer1"
     showgrid="false"
     fit-margin-top="10"
     fit-margin-left="10"
     fit-margin-right="10"
     fit-margin-bottom="10"
     inkscape:window-width="1920"
     inkscape:window-height="1056"
     inkscape:window-x="0"
     inkscape:window-y="24"
     inkscape:window-maximized="0" />
  <metadata
     id="metadata47058">
    <rdf:RDF>
      <cc:Work
         rdf:about="">
        <dc:format>image/svg+xml</dc:format>
        <dc:type
           rdf:resource="http://purl.org/dc/dcmitype/StillImage" />
        <dc:title></dc:title>
      </cc:Work>
    </rdf:RDF>
  </metadata>
  <g
     inkscape:label="Calque 1"
     inkscape:groupmode="layer"
     id="layer1"
     transform="translate(2.2857141,-72.933609)">
    <rect
       style="fill:none;stroke:#000000;stroke-width:1;stroke-linecap:round;stroke-linejoin:round;stroke-miterlimit:4;stroke-dasharray:none;stroke-dashoffset:0;opacity:1"
       id="rect48129"
       width="123.57143"
       height="123.57143"
       x="8.2142859"
       y="83.433609" />
    <rect
       y="83.433609"
       x="234.21429"
       height="123.57143"
       width="123.57143"
       id="rect48131"
       style="fill:none;stroke:#000000;stroke-width:1;stroke-linecap:round;stroke-linejoin:round;stroke-miterlimit:4;stroke-dasharray:none;stroke-dashoffset:0" />
    <path
       style="fill:none;stroke:#000000;stroke-width:0.95024008px;stroke-linecap:butt;stroke-linejoin:miter;stroke-opacity:1;marker-start:url(#Arrow1Mstart);marker-end:url(#Arrow1Mend)"
       d="m 140.10713,145.21932 85.21431,0"
       id="path48133"
       inkscape:connector-curvature="0" />
    <g
       id="g59880"
       clip-path="url(#clipPath59906)">
      <path
         transform="translate(-26.285714,69.933609)"
         d="m 29.285715,75.285713 a 2.8571429,2.8571429 0 1 1 -5.714286,0 2.8571429,2.8571429 0 1 1 5.714286,0 z"
         sodipodi:ry="2.8571429"
         sodipodi:rx="2.8571429"
         sodipodi:cy="75.285713"
         sodipodi:cx="26.428572"
         id="path55213"
         style="fill:#000000;fill-opacity:1;stroke:none"
         sodipodi:type="arc" />
      <path
         sodipodi:type="arc"
         style="fill:#000000;fill-opacity:1;stroke:none"
         id="path55215"
         sodipodi:cx="26.428572"
         sodipodi:cy="75.285713"
         sodipodi:rx="2.8571429"
         sodipodi:ry="2.8571429"
         d="m 29.285715,75.285713 a 2.8571429,2.8571429 0 1 1 -5.714286,0 2.8571429,2.8571429 0 1 1 5.714286,0 z"
         transform="translate(-6.285714,69.933609)" />
      <path
         transform="translate(3.714286,69.933609)"
         d="m 29.285715,75.285713 a 2.8571429,2.8571429 0 1 1 -5.714286,0 2.8571429,2.8571429 0 1 1 5.714286,0 z"
         sodipodi:ry="2.8571429"
         sodipodi:rx="2.8571429"
         sodipodi:cy="75.285713"
         sodipodi:cx="26.428572"
         id="path55217"
         style="fill:#000000;fill-opacity:1;stroke:none"
         sodipodi:type="arc" />
      <path
         sodipodi:type="arc"
         style="fill:#000000;fill-opacity:1;stroke:none"
         id="path55219"
         sodipodi:cx="26.428572"
         sodipodi:cy="75.285713"
         sodipodi:rx="2.8571429"
         sodipodi:ry="2.8571429"
         d="m 29.285715,75.285713 a 2.8571429,2.8571429 0 1 1 -5.714286,0 2.8571429,2.8571429 0 1 1 5.714286,0 z"
         transform="translate(33.714286,69.933609)" />
      <path
         transform="translate(57.714286,69.933609)"
         d="m 29.285715,75.285713 a 2.8571429,2.8571429 0 1 1 -5.714286,0 2.8571429,2.8571429 0 1 1 5.714286,0 z"
         sodipodi:ry="2.8571429"
         sodipodi:rx="2.8571429"
         sodipodi:cy="75.285713"
         sodipodi:cx="26.428572"
         id="path55221"
         style="fill:#000000;fill-opacity:1;stroke:none"
         sodipodi:type="arc" />
      <path
         sodipodi:type="arc"
         style="fill:#000000;fill-opacity:1;stroke:none"
         id="path55223"
         sodipodi:cx="26.428572"
         sodipodi:cy="75.285713"
         sodipodi:rx="2.8571429"
         sodipodi:ry="2.8571429"
         d="m 29.285715,75.285713 a 2.8571429,2.8571429 0 1 1 -5.714286,0 2.8571429,2.8571429 0 1 1 5.714286,0 z"
         transform="translate(69.714286,69.933609)" />
      <path
         transform="translate(81.71429,69.933609)"
         d="m 29.285715,75.285713 a 2.8571429,2.8571429 0 1 1 -5.714286,0 2.8571429,2.8571429 0 1 1 5.714286,0 z"
         sodipodi:ry="2.8571429"
         sodipodi:rx="2.8571429"
         sodipodi:cy="75.285713"
         sodipodi:cx="26.428572"
         id="path55225"
         style="fill:#000000;fill-opacity:1;stroke:none"
         sodipodi:type="arc" />
      <path
         sodipodi:type="arc"
         style="fill:#000000;fill-opacity:1;stroke:none"
         id="path55227"
         sodipodi:cx="26.428572"
         sodipodi:cy="75.285713"
         sodipodi:rx="2.8571429"
         sodipodi:ry="2.8571429"
         d="m 29.285715,75.285713 a 2.8571429,2.8571429 0 1 1 -5.714286,0 2.8571429,2.8571429 0 1 1 5.714286,0 z"
         transform="translate(101.71429,69.933609)" />
      <text
         transform="matrix(0.62837091,-0.77791388,0.77791388,0.62837091,0,0)"
         sodipodi:linespacing="125%"
         id="text59852"
         y="103.95454"
         x="-97.525444"
         style="font-size:12px;font-style:normal;font-weight:normal;line-height:125%;letter-spacing:0px;word-spacing:0px;fill:#000000;fill-opacity:1;stroke:none;font-family:Sans"
         xml:space="preserve"><tspan
           style="font-style:normal;font-variant:normal;font-weight:normal;font-stretch:normal;font-family:Fontin Sans;-inkscape-font-specification:Fontin Sans"
           y="103.95454"
           x="-97.525444"
           id="tspan59854"
           sodipodi:role="line">t=1,0</tspan></text>
      <text
         xml:space="preserve"
         style="font-size:12px;font-style:normal;font-weight:normal;line-height:125%;letter-spacing:0px;word-spacing:0px;fill:#000000;fill-opacity:1;stroke:none;font-family:Sans"
         x="-88.728233"
         y="114.84531"
         id="text59856"
         sodipodi:linespacing="125%"
         transform="matrix(0.62837091,-0.77791388,0.77791388,0.62837091,0,0)"><tspan
           sodipodi:role="line"
           id="tspan59858"
           x="-88.728233"
           y="114.84531"
           style="font-style:normal;font-variant:normal;font-weight:normal;font-stretch:normal;font-family:Fontin Sans;-inkscape-font-specification:Fontin Sans">t=1,7</tspan></text>
      <text
         transform="matrix(0.62837091,-0.77791388,0.77791388,0.62837091,0,0)"
         sodipodi:linespacing="125%"
         id="text59860"
         y="136.62689"
         x="-71.133812"
         style="font-size:12px;font-style:normal;font-weight:normal;line-height:125%;letter-spacing:0px;word-spacing:0px;fill:#000000;fill-opacity:1;stroke:none;font-family:Sans"
         xml:space="preserve"><tspan
           style="font-style:normal;font-variant:normal;font-weight:normal;font-stretch:normal;font-family:Fontin Sans;-inkscape-font-specification:Fontin Sans"
           y="136.62689"
           x="-71.133812"
           id="tspan59862"
           sodipodi:role="line">t=4,1</tspan></text>
      <text
         xml:space="preserve"
         style="font-size:12px;font-style:normal;font-weight:normal;line-height:125%;letter-spacing:0px;word-spacing:0px;fill:#000000;fill-opacity:1;stroke:none;font-family:Sans"
         x="-57.309647"
         y="153.74104"
         id="text59864"
         sodipodi:linespacing="125%"
         transform="matrix(0.62837091,-0.77791388,0.77791388,0.62837091,0,0)"><tspan
           sodipodi:role="line"
           id="tspan59866"
           x="-57.309647"
           y="153.74104"
           style="font-style:normal;font-variant:normal;font-weight:normal;font-stretch:normal;font-family:Fontin Sans;-inkscape-font-specification:Fontin Sans">t=6,0</tspan></text>
      <text
         transform="matrix(0.62837091,-0.77791388,0.77791388,0.62837091,0,0)"
         sodipodi:linespacing="125%"
         id="text59868"
         y="163.07603"
         x="-49.769203"
         style="font-size:12px;font-style:normal;font-weight:normal;line-height:125%;letter-spacing:0px;word-spacing:0px;fill:#000000;fill-opacity:1;stroke:none;font-family:Sans"
         xml:space="preserve"><tspan
           style="font-style:normal;font-variant:normal;font-weight:normal;font-stretch:normal;font-family:Fontin Sans;-inkscape-font-specification:Fontin Sans"
           y="163.07603"
           x="-49.769203"
           id="tspan59870"
           sodipodi:role="line">t=6,9</tspan></text>
      <text
         xml:space="preserve"
         style="font-size:12px;font-style:normal;font-weight:normal;line-height:125%;letter-spacing:0px;word-spacing:0px;fill:#000000;fill-opacity:1;stroke:none;font-family:Sans"
         x="-42.22876"
         y="172.41103"
         id="text59872"
         sodipodi:linespacing="125%"
         transform="matrix(0.62837091,-0.77791388,0.77791388,0.62837091,0,0)"><tspan
           sodipodi:role="line"
           id="tspan59874"
           x="-42.22876"
           y="172.41103"
           style="font-style:normal;font-variant:normal;font-weight:normal;font-stretch:normal;font-family:Fontin Sans;-inkscape-font-specification:Fontin Sans">t=8,4</tspan></text>
      <text
         transform="matrix(0.62837091,-0.77791388,0.77791388,0.62837091,0,0)"
         sodipodi:linespacing="125%"
         id="text59876"
         y="187.96935"
         x="-29.66135"
         style="font-size:12px;font-style:normal;font-weight:normal;line-height:125%;letter-spacing:0px;word-spacing:0px;fill:#000000;fill-opacity:1;stroke:none;font-family:Sans"
         xml:space="preserve"><tspan
           style="font-style:normal;font-variant:normal;font-weight:normal;font-stretch:normal;font-family:Fontin Sans;-inkscape-font-specification:Fontin Sans"
           y="187.96935"
           x="-29.66135"
           id="tspan59878"
           sodipodi:role="line">t=4,1</tspan></text>
    </g>
    <g
       id="g60227"
       clip-path="url(#clipPath60254)">
      <path
         sodipodi:nodetypes="cc"
         style="fill:none;stroke:#000000;stroke-width:1px;stroke-linecap:butt;stroke-linejoin:miter;stroke-opacity:1;marker-end:url(#Arrow2Send)"
         d="m 257.92858,123.00503 24.28571,14.28571"
         id="path60188"
         inkscape:connector-curvature="0" />
      <path
         transform="translate(-2.2857141,72.933609)"
         inkscape:connector-curvature="0"
         id="path59986"
         d="m 248.21429,72.071426 9.28571,-17.5"
         style="fill:none;stroke:#000000;stroke-width:1px;stroke-linecap:butt;stroke-linejoin:miter;stroke-opacity:1;marker-end:url(#Arrow2Send)" />
      <path
         sodipodi:nodetypes="cc"
         style="fill:none;stroke:#000000;stroke-width:1px;stroke-linecap:butt;stroke-linejoin:miter;stroke-opacity:1;marker-end:url(#Arrow2Send)"
         d="m 248.21429,72.071426 6.07143,20"
         id="path60190"
         inkscape:connector-curvature="0"
         transform="translate(-2.2857141,72.933609)" />
      <path
         inkscape:connector-curvature="0"
         id="path60192"
         d="m 265.42858,145.14789 33.92857,16.42856"
         style="fill:none;stroke:#000000;stroke-width:1px;stroke-linecap:butt;stroke-linejoin:miter;stroke-opacity:1;marker-end:url(#Arrow2Send)"
         sodipodi:nodetypes="cc" />
      <path
         sodipodi:nodetypes="cc"
         style="fill:none;stroke:#000000;stroke-width:1px;stroke-linecap:butt;stroke-linejoin:miter;stroke-opacity:1;marker-end:url(#Arrow2Send)"
         d="m 253.64287,169.07646 c 34.60041,6.88479 61.58378,5.60847 82.85714,-1.78572"
         id="path60194"
         inkscape:connector-curvature="0" />
      <path
         inkscape:connector-curvature="0"
         id="path60196"
         d="m 285.78572,139.79074 17.14286,3.92857"
         style="fill:none;stroke:#000000;stroke-width:1px;stroke-linecap:butt;stroke-linejoin:miter;stroke-opacity:1;marker-end:url(#Arrow2Send)"
         sodipodi:nodetypes="cc" />
      <path
         sodipodi:nodetypes="cc"
         style="fill:none;stroke:#000000;stroke-width:1px;stroke-linecap:butt;stroke-linejoin:miter;stroke-opacity:1;marker-end:url(#Arrow2Send)"
         d="M 300.07143,131.21931 319,142.29074"
         id="path60198"
         inkscape:connector-curvature="0" />
      <path
         sodipodi:nodetypes="cc"
         style="fill:none;stroke:#000000;stroke-width:1px;stroke-linecap:butt;stroke-linejoin:miter;stroke-opacity:1;marker-end:url(#Arrow2Send)"
         d="m 285.78572,139.79074 10,-6.07143"
         id="path60200"
         inkscape:connector-curvature="0" />
      <path
         inkscape:connector-curvature="0"
         id="path60202"
         d="m 322.21429,145.50502 7.5,-13.92857"
         style="fill:none;stroke:#000000;stroke-width:1px;stroke-linecap:butt;stroke-linejoin:miter;stroke-opacity:1;marker-end:url(#Arrow2Send)"
         sodipodi:nodetypes="cc" />
      <path
         transform="translate(-2.2857141,72.933609)"
         inkscape:connector-curvature="0"
         id="path60204"
         d="m 256.78572,96.35714 9.28571,-20.357143"
         style="fill:none;stroke:#000000;stroke-width:1px;stroke-linecap:butt;stroke-linejoin:miter;stroke-opacity:1;marker-end:url(#Arrow2Send)"
         sodipodi:nodetypes="cc" />
      <path
         sodipodi:nodetypes="cc"
         style="fill:none;stroke:#000000;stroke-width:1px;stroke-linecap:butt;stroke-linejoin:miter;stroke-opacity:1;marker-end:url(#Arrow2Send)"
         d="m 303.64287,163.36218 61.78571,-11.07144"
         id="path60219"
         inkscape:connector-curvature="0" />
      <path
         sodipodi:nodetypes="cc"
         style="fill:none;stroke:#000000;stroke-width:1px;stroke-linecap:butt;stroke-linejoin:miter;stroke-opacity:1;marker-end:url(#Arrow2Send)"
         d="m 322.21429,145.50502 42.5,-14.28571"
         id="path60221"
         inkscape:connector-curvature="0" />
      <path
         sodipodi:nodetypes="cc"
         style="fill:none;stroke:#000000;stroke-width:1px;stroke-linecap:butt;stroke-linejoin:miter;stroke-opacity:1;marker-end:url(#Arrow2Send)"
         d="M 217.85715,91.714283 245,74.928569"
         id="path60223"
         inkscape:connector-curvature="0"
         transform="translate(-2.2857141,72.933609)" />
      <g
         id="g60206">
        <path
           transform="translate(227.71429,93.933609)"
           d="m 29.285715,75.285713 a 2.8571429,2.8571429 0 1 1 -5.714286,0 2.8571429,2.8571429 0 1 1 5.714286,0 z"
           sodipodi:ry="2.8571429"
           sodipodi:rx="2.8571429"
           sodipodi:cy="75.285713"
           sodipodi:cx="26.428572"
           id="path59912"
           style="fill:#000000;fill-opacity:1;stroke:#ffffff;stroke-opacity:1;stroke-width:0.5;stroke-miterlimit:4;stroke-dasharray:none"
           sodipodi:type="arc" />
        <path
           sodipodi:type="arc"
           style="fill:#000000;fill-opacity:1;stroke:#ffffff;stroke-opacity:1;stroke-width:0.5;stroke-miterlimit:4;stroke-dasharray:none"
           id="path59914"
           sodipodi:cx="26.428572"
           sodipodi:cy="75.285713"
           sodipodi:rx="2.8571429"
           sodipodi:ry="2.8571429"
           d="m 29.285715,75.285713 a 2.8571429,2.8571429 0 1 1 -5.714286,0 2.8571429,2.8571429 0 1 1 5.714286,0 z"
           transform="translate(219.71429,69.933609)" />
        <path
           transform="translate(239.71429,69.933609)"
           d="m 29.285715,75.285713 a 2.8571429,2.8571429 0 1 1 -5.714286,0 2.8571429,2.8571429 0 1 1 5.714286,0 z"
           sodipodi:ry="2.8571429"
           sodipodi:rx="2.8571429"
           sodipodi:cy="75.285713"
           sodipodi:cx="26.428572"
           id="path59916"
           style="fill:#000000;fill-opacity:1;stroke:#ffffff;stroke-opacity:1;stroke-width:0.5;stroke-miterlimit:4;stroke-dasharray:none"
           sodipodi:type="arc" />
        <path
           sodipodi:type="arc"
           style="fill:#000000;fill-opacity:1;stroke:#ffffff;stroke-opacity:1;stroke-width:0.5;stroke-miterlimit:4;stroke-dasharray:none"
           id="path59918"
           sodipodi:cx="26.428572"
           sodipodi:cy="75.285713"
           sodipodi:rx="2.8571429"
           sodipodi:ry="2.8571429"
           d="m 29.285715,75.285713 a 2.8571429,2.8571429 0 1 1 -5.714286,0 2.8571429,2.8571429 0 1 1 5.714286,0 z"
           transform="translate(259.71429,63.933609)" />
        <path
           transform="translate(273.71429,55.933609)"
           d="m 29.285715,75.285713 a 2.8571429,2.8571429 0 1 1 -5.714286,0 2.8571429,2.8571429 0 1 1 5.714286,0 z"
           sodipodi:ry="2.8571429"
           sodipodi:rx="2.8571429"
           sodipodi:cy="75.285713"
           sodipodi:cx="26.428572"
           id="path59920"
           style="fill:#000000;fill-opacity:1;stroke:#ffffff;stroke-opacity:1;stroke-width:0.5;stroke-miterlimit:4;stroke-dasharray:none"
           sodipodi:type="arc" />
        <path
           sodipodi:type="arc"
           style="fill:#000000;fill-opacity:1;stroke:#ffffff;stroke-opacity:1;stroke-width:0.5;stroke-miterlimit:4;stroke-dasharray:none"
           id="path59922"
           sodipodi:cx="26.428572"
           sodipodi:cy="75.285713"
           sodipodi:rx="2.8571429"
           sodipodi:ry="2.8571429"
           d="m 29.285715,75.285713 a 2.8571429,2.8571429 0 1 1 -5.714286,0 2.8571429,2.8571429 0 1 1 5.714286,0 z"
           transform="translate(277.71429,87.933609)" />
        <path
           transform="translate(281.71429,69.933609)"
           d="m 29.285715,75.285713 a 2.8571429,2.8571429 0 1 1 -5.714286,0 2.8571429,2.8571429 0 1 1 5.714286,0 z"
           sodipodi:ry="2.8571429"
           sodipodi:rx="2.8571429"
           sodipodi:cy="75.285713"
           sodipodi:cx="26.428572"
           id="path59924"
           style="fill:#000000;fill-opacity:1;stroke:#ffffff;stroke-opacity:1;stroke-width:0.5;stroke-miterlimit:4;stroke-dasharray:none"
           sodipodi:type="arc" />
        <path
           sodipodi:type="arc"
           style="fill:#000000;fill-opacity:1;stroke:#ffffff;stroke-opacity:1;stroke-width:0.5;stroke-miterlimit:4;stroke-dasharray:none"
           id="path59926"
           sodipodi:cx="26.428572"
           sodipodi:cy="75.285713"
           sodipodi:rx="2.8571429"
           sodipodi:ry="2.8571429"
           d="m 29.285715,75.285713 a 2.8571429,2.8571429 0 1 1 -5.714286,0 2.8571429,2.8571429 0 1 1 5.714286,0 z"
           transform="translate(305.71429,51.933609)" />
        <path
           sodipodi:type="arc"
           style="fill:#000000;fill-opacity:1;stroke:#ffffff;stroke-opacity:1;stroke-width:0.5;stroke-miterlimit:4;stroke-dasharray:none"
           id="path59980"
           sodipodi:cx="26.428572"
           sodipodi:cy="75.285713"
           sodipodi:rx="2.8571429"
           sodipodi:ry="2.8571429"
           d="m 29.285715,75.285713 a 2.8571429,2.8571429 0 1 1 -5.714286,0 2.8571429,2.8571429 0 1 1 5.714286,0 z"
           transform="translate(231.71429,47.933609)" />
        <path
           transform="translate(315.71429,91.933609)"
           d="m 29.285715,75.285713 a 2.8571429,2.8571429 0 1 1 -5.714286,0 2.8571429,2.8571429 0 1 1 5.714286,0 z"
           sodipodi:ry="2.8571429"
           sodipodi:rx="2.8571429"
           sodipodi:cy="75.285713"
           sodipodi:cx="26.428572"
           id="path59982"
           style="fill:#000000;fill-opacity:1;stroke:#ffffff;stroke-opacity:1;stroke-width:0.5;stroke-miterlimit:4;stroke-dasharray:none"
           sodipodi:type="arc" />
        <path
           transform="translate(295.71429,69.933609)"
           d="m 29.285715,75.285713 a 2.8571429,2.8571429 0 1 1 -5.714286,0 2.8571429,2.8571429 0 1 1 5.714286,0 z"
           sodipodi:ry="2.8571429"
           sodipodi:rx="2.8571429"
           sodipodi:cy="75.285713"
           sodipodi:cx="26.428572"
           id="path59984"
           style="fill:#000000;fill-opacity:1;stroke:#ffffff;stroke-opacity:1;stroke-width:0.5;stroke-miterlimit:4;stroke-dasharray:none"
           sodipodi:type="arc" />
      </g>
    </g>
  </g>
</svg>
