  1000	1
  2000	1
  3000	1
  4000	1
  5000	2
  6000	2
  7000	2
  8000	2
  9000	4
 10000	4
 11000	4
 12000	4
 13000	8
 14000	8
 15000	8
 16000	8
 17000	14
 18000	16
 19000	16
 20000	16
 21000	26
 22000	27
 23000	28
 24000	28
 25000	39
 26000	46
 27000	50
 28000	53
 29000	67
 30000	69
 31000	72
 32000	75
 33000	86
 34000	110
 35000	117
 36000	125
 37000	133
 38000	151
 39000	166
 40000	177
 41000	190
 42000	215
 43000	242
 44000	263
 45000	285
 46000	314
 47000	347
 48000	374
 49000	404
 50000	430
 51000	454
 52000	490
 53000	512
 54000	527
 55000	542
 56000	556
 57000	563
 58000	581
 59000	589
 60000	617
 61000	650
 62000	656
 63000	662
 64000	675
 65000	690
 66000	694
 67000	712
 68000	725
 69000	742
 70000	769
 71000	769
 72000	774
 73000	788
 74000	796
 75000	810
 76000	822
 77000	855
 78000	856
 79000	875
 80000	903
 81000	899
 82000	893
 83000	908
 84000	910
 85000	928
 86000	951
 87000	966
 88000	988
 89000	993
 90000	1001
 91000	1010
 92000	1025
 93000	1049
 94000	1052
 95000	1085
 96000	1109
 97000	1110
 98000	1121
 99000	1115
100000	1125
101000	1149
102000	1181
103000	1204
104000	1226
105000	1239
106000	1267
107000	1267
108000	1278
109000	1295
110000	1318
111000	1345
112000	1367
113000	1378
114000	1415
115000	1435
116000	1449
117000	1461
118000	1480
119000	1489
120000	1510
121000	1528
122000	1553
123000	1590
124000	1611
125000	1628
126000	1624
127000	1639
128000	1663
129000	1690
130000	1715
131000	1738
132000	1774
133000	1795
134000	1823
135000	1822
136000	1827
137000	1835
138000	1863
139000	1899
140000	1914
141000	1943
142000	1966
143000	1987
144000	2003
145000	2008
146000	2039
147000	2070
148000	2105
149000	2104
150000	2132
151000	2138
152000	2165
153000	2175
154000	2211
155000	2233
156000	2251
157000	2285
158000	2296
159000	2318
160000	2359
161000	2364
162000	2366
163000	2388
164000	2428
165000	2472
166000	2476
167000	2502
168000	2520
169000	2553
170000	2550
171000	2585
172000	2634
173000	2653
174000	2674
175000	2693
176000	2697
177000	2715
178000	2731
179000	2766
180000	2810
181000	2850
182000	2858
183000	2873
184000	2897
185000	2909
186000	2926
187000	2973
188000	2986
189000	3009
190000	3053
191000	3076
192000	3122
193000	3142
194000	3129
195000	3151
196000	3166
197000	3160
198000	3229
199000	3271
200000	3291
201000	3299
202000	3309
203000	3324
204000	3348
205000	3359
206000	3419
207000	3451
208000	3476
209000	3500
210000	3505
211000	3506
212000	3520
213000	3570
214000	3592
215000	3657
216000	3648
217000	3662
218000	3686
219000	3712
220000	3715
221000	3753
222000	3782
223000	3807
224000	3808
225000	3821
226000	3845
227000	3871
228000	3880
229000	3916
230000	3899
231000	3935
232000	3947
233000	3966
234000	4011
235000	4033
236000	4041
237000	4062
238000	4104
239000	4152
240000	4142
241000	4130
242000	4185
243000	4185
244000	4199
245000	4183
246000	4227
247000	4265
248000	4322
249000	4297
250000	4325
251000	4346
252000	4353
253000	4378
254000	4428
255000	4472
256000	4472
257000	4481
258000	4485
259000	4531
260000	4522
261000	4554
262000	4543
263000	4559
264000	4586
265000	4609
266000	4689
267000	4680
268000	4702
269000	4701
270000	4711
271000	4718
272000	4720
273000	4728
274000	4787
275000	4842
276000	4853
277000	4832
278000	4856
279000	4881
280000	4872
281000	4946
282000	4921
283000	4949
284000	4974
285000	4995
286000	4999
287000	5005
288000	4981
289000	5040
290000	5071
291000	5062
292000	5116
293000	5140
294000	5130
295000	5149
296000	5152
297000	5144
298000	5143
299000	5179
300000	5232
301000	5253
302000	5270
303000	5275
304000	5297
305000	5285
306000	5276
307000	5262
308000	5328
309000	5381
310000	5403
311000	5445
312000	5406
313000	5389
314000	5403
315000	5404
316000	5456
317000	5455
318000	5524
319000	5519
320000	5498
321000	5497
322000	5527
323000	5548
324000	5574
325000	5609
326000	5632
327000	5644
328000	5636
329000	5601
330000	5602
331000	5600
332000	5668
333000	5675
334000	5748
335000	5724
336000	5735
337000	5699
338000	5688
339000	5734
340000	5765
341000	5793
342000	5799
343000	5758
344000	5822
345000	5817
346000	5823
347000	5836
348000	5835
349000	5840
350000	5863
351000	5898
352000	5896
353000	5874
354000	5900
355000	5921
356000	5891
357000	5934
358000	5956
359000	5986
360000	5971
361000	5939
362000	5952
363000	5947
364000	5944
365000	5992
366000	6011
367000	6016
368000	6035
369000	5982
370000	6008
371000	5963
372000	6007
373000	6029
374000	6043
375000	6015
376000	6050
377000	6012
378000	6028
379000	6041
380000	6068
381000	6114
382000	6072
383000	6038
384000	6048
385000	6041
386000	6078
387000	6097
388000	6088
389000	6095
390000	6102
391000	6136
392000	6085
393000	6050
394000	6059
395000	6112
396000	6134
397000	6144
398000	6138
399000	6133
400000	6086
401000	6070
402000	6092
403000	6107
404000	6146
405000	6162
406000	6148
407000	6139
408000	6159
409000	6142
410000	6128
411000	6142
412000	6138
413000	6148
414000	6144
415000	6191
416000	6175
417000	6164
418000	6128
419000	6146
420000	6161
421000	6144
422000	6178
423000	6185
424000	6203
425000	6164
426000	6187
427000	6168
428000	6183
429000	6185
430000	6169
431000	6189
432000	6214
433000	6189
434000	6178
435000	6171
436000	6145
437000	6142
438000	6183
439000	6202
440000	6155
441000	6175
442000	6129
443000	6115
444000	6146
445000	6198
446000	6196
447000	6145
448000	6130
449000	6161
450000	6152
451000	6125
452000	6161
453000	6191
454000	6177
455000	6162
456000	6154
457000	6155
458000	6140
459000	6165
460000	6177
461000	6201
462000	6167
463000	6154
464000	6184
465000	6195
466000	6111
467000	6157
468000	6188
469000	6216
470000	6202
471000	6191
472000	6212
473000	6178
474000	6141
475000	6149
476000	6173
477000	6207
478000	6221
479000	6206
480000	6202
481000	6180
482000	6144
483000	6202
484000	6241
485000	6195
486000	6220
487000	6191
488000	6194
489000	6174
490000	6197
491000	6243
492000	6242
493000	6255
494000	6235
495000	6216
496000	6217
497000	6235
498000	6289
499000	6243
500000	6254
501000	6290
502000	6250
503000	6255
504000	6276
505000	6264
506000	6276
507000	6254
508000	6287
509000	6280
510000	6237
511000	6256
512000	6261
513000	6265
514000	6306
515000	6322
516000	6331
517000	6256
518000	6261
519000	6248
520000	6267
521000	6292
522000	6348
523000	6345
524000	6329
525000	6325
526000	6297
527000	6282
528000	6275
529000	6318
530000	6311
531000	6356
532000	6343
533000	6322
534000	6300
535000	6317
536000	6293
537000	6296
538000	6339
539000	6337
540000	6336
541000	6366
542000	6354
543000	6310
544000	6304
545000	6293
546000	6317
547000	6380
548000	6373
549000	6338
550000	6309
551000	6302
552000	6298
553000	6284
554000	6316
555000	6346
556000	6346
557000	6360
558000	6368
559000	6328
560000	6305
561000	6297
562000	6293
563000	6374
564000	6343
565000	6357
566000	6341
567000	6337
568000	6318
569000	6314
570000	6300
571000	6315
572000	6345
573000	6314
574000	6354
575000	6361
576000	6308
577000	6304
578000	6319
579000	6356
580000	6342
581000	6370
582000	6347
583000	6326
584000	6314
585000	6321
586000	6314
587000	6402
588000	6355
589000	6376
590000	6315
591000	6277
592000	6312
593000	6320
594000	6361
595000	6351
596000	6341
597000	6364
598000	6333
599000	6308
600000	6272
601000	6327
602000	6328
603000	6308
604000	6332
605000	6326
606000	6309
607000	6331
608000	6329
609000	6304
610000	6283
611000	6299
612000	6341
613000	6341
614000	6325
615000	6320
616000	6321
617000	6301
618000	6305
619000	6305
620000	6277
621000	6331
622000	6328
623000	6320
624000	6305
625000	6288
626000	6325
627000	6314
628000	6312
629000	6309
630000	6328
631000	6318
632000	6271
633000	6287
634000	6294
635000	6313
636000	6316
637000	6310
638000	6305
639000	6323
640000	6320
641000	6275
642000	6275
643000	6298
644000	6321
645000	6326
646000	6318
647000	6293
648000	6314
649000	6309
650000	6251
651000	6291
652000	6267
653000	6302
654000	6322
655000	6332
656000	6312
657000	6261
658000	6299
659000	6298
660000	6257
661000	6252
662000	6277
663000	6328
664000	6293
665000	6305
666000	6305
667000	6292
668000	6289
669000	6300
670000	6301
671000	6310
672000	6293
673000	6267
674000	6292
675000	6224
676000	6270
677000	6272
678000	6298
679000	6313
680000	6289
681000	6270
682000	6263
683000	6241
684000	6216
685000	6245
686000	6238
687000	6303
688000	6290
689000	6256
690000	6227
691000	6247
692000	6242
693000	6226
694000	6221
695000	6272
696000	6259
697000	6252
698000	6223
699000	6225
700000	6215
701000	6183
702000	6183
703000	6238
704000	6206
705000	6230
706000	6202
707000	6203
708000	6186
709000	6183
710000	6166
711000	6178
712000	6218
713000	6221
714000	6208
715000	6187
716000	6177
717000	6139
718000	6146
719000	6192
720000	6224
721000	6215
722000	6224
723000	6172
724000	6165
725000	6147
726000	6138
727000	6163
728000	6166
729000	6183
730000	6173
731000	6233
732000	6180
733000	6182
734000	6163
735000	6139
736000	6140
737000	6144
738000	6169
739000	6175
740000	6185
741000	6201
742000	6171
743000	6156
744000	6146
745000	6140
746000	6143
747000	6164
748000	6176
749000	6147
750000	6123
751000	6127
752000	6098
753000	6113
754000	6137
755000	6192
756000	6162
757000	6169
758000	6143
759000	6147
760000	6065
761000	6078
762000	6095
763000	6140
764000	6130
765000	6157
766000	6160
767000	6142
768000	6088
769000	6065
770000	6093
771000	6093
772000	6142
773000	6153
774000	6182
775000	6120
776000	6097
777000	6100
778000	6103
779000	6118
780000	6141
781000	6124
782000	6135
783000	6174
784000	6155
785000	6136
786000	6128
787000	6132
788000	6178
789000	6155
790000	6190
791000	6232
792000	6187
793000	6208
794000	6210
795000	6212
796000	6253
797000	6210
798000	6161
799000	6143
800000	6178
801000	6199
802000	6235
803000	6266
804000	6275
805000	6215
806000	6206
807000	6196
808000	6158
809000	6206
810000	6237
811000	6261
812000	6272
813000	6257
814000	6213
815000	6155
816000	6164
817000	6158
818000	6242
819000	6232
820000	6237
821000	6212
822000	6217
823000	6173
824000	6165
825000	6220
826000	6231
827000	6238
828000	6243
829000	6213
830000	6197
831000	6180
832000	6208
833000	6231
834000	6228
835000	6257
836000	6253
837000	6243
838000	6209
839000	6226
840000	6240
841000	6214
842000	6190
843000	6235
844000	6238
845000	6299
846000	6281
847000	6245
848000	6246
849000	6252
850000	6215
851000	6215
852000	6223
853000	6281
854000	6317
855000	6262
856000	6243
857000	6304
858000	6212
859000	6202
860000	6245
861000	6285
862000	6318
863000	6316
864000	6313
865000	6311
866000	6253
867000	6258
868000	6285
869000	6363
870000	6338
871000	6313
872000	6302
873000	6301
874000	6289
875000	6306
876000	6335
877000	6360
878000	6301
879000	6292
880000	6295
881000	6327
882000	6348
883000	6394
884000	6408
885000	6341
886000	6340
887000	6298
888000	6300
889000	6326
890000	6376
891000	6415
892000	6394
893000	6365
894000	6320
895000	6336
896000	6336
897000	6343
898000	6392
899000	6390
900000	6373
901000	6368
902000	6387
903000	6408
904000	6397
905000	6368
906000	6377
907000	6408
908000	6388
909000	6401
910000	6401
911000	6415
912000	6432
913000	6437
914000	6430
915000	6383
916000	6392
917000	6368
918000	6354
919000	6420
920000	6440
921000	6453
922000	6412
923000	6464
924000	6421
925000	6397
926000	6422
927000	6448
928000	6425
929000	6435
930000	6460
931000	6461
932000	6433
933000	6438
934000	6421
935000	6432
936000	6468
937000	6484
938000	6517
939000	6514
940000	6444
941000	6415
942000	6420
943000	6434
944000	6458
945000	6468
946000	6462
947000	6435
948000	6415
949000	6467
950000	6442
951000	6430
952000	6458
953000	6462
954000	6424
955000	6453
956000	6447
957000	6468
958000	6482
959000	6457
960000	6462
961000	6432
962000	6441
963000	6444
964000	6429
965000	6430
966000	6402
967000	6432
968000	6471
969000	6451
970000	6439
971000	6389
972000	6384
973000	6411
974000	6434
975000	6456
976000	6420
977000	6423
978000	6387
979000	6374
980000	6343
981000	6368
982000	6395
983000	6378
984000	6424
985000	6431
986000	6368
987000	6401
988000	6346
989000	6322
990000	6330
991000	6348
992000	6352
993000	6385
994000	6393
995000	6373
996000	6332
997000	6339
998000	6322
999000	6299
1000000	6333
1001000	6371
1002000	6373
1003000	6349
1004000	6330
1005000	6331
1006000	6309
1007000	6337
1008000	6337
1009000	6350
1010000	6329
1011000	6300
1012000	6305
1013000	6339
1014000	6319
1015000	6353
1016000	6355
1017000	6309
1018000	6278
1019000	6252
1020000	6266
1021000	6326
1022000	6336
1023000	6320
1024000	6292
1025000	6288
1026000	6260
1027000	6280
1028000	6249
1029000	6259
1030000	6291
1031000	6265
1032000	6264
1033000	6258
1034000	6270
1035000	6231
1036000	6253
1037000	6248
1038000	6264
1039000	6230
1040000	6260
1041000	6257
1042000	6229
1043000	6217
1044000	6225
1045000	6249
1046000	6259
1047000	6212
1048000	6224
1049000	6202
1050000	6183
1051000	6208
1052000	6169
1053000	6225
1054000	6233
1055000	6175
1056000	6131
1057000	6188
1058000	6193
1059000	6199
1060000	6155
1061000	6194
1062000	6176
1063000	6191
1064000	6154
1065000	6210
1066000	6174
1067000	6160
1068000	6177
1069000	6154
1070000	6146
1071000	6142
1072000	6148
1073000	6119
1074000	6126
1075000	6128
1076000	6146
1077000	6117
1078000	6125
1079000	6154
1080000	6164
1081000	6126
1082000	6077
1083000	6078
1084000	6058
1085000	6081
1086000	6072
1087000	6092
1088000	6116
1089000	6099
1090000	6102
1091000	6093
1092000	6047
1093000	6037
1094000	6047
1095000	6098
1096000	6113
1097000	6088
1098000	6002
1099000	5996
1100000	6053
1101000	6096
1102000	6106
1103000	6098
1104000	6046
1105000	6010
1106000	5965
1107000	5974
1108000	5991
1109000	6075
1110000	6102
1111000	6092
1112000	6019
1113000	5960
1114000	5962
1115000	5967
1116000	6031
1117000	6050
1118000	6050
1119000	6017
1120000	5980
1121000	5914
1122000	5954
1123000	5970
1124000	5985
1125000	6032
1126000	6079
1127000	6009
1128000	5966
1129000	5939
1130000	5941
1131000	5956
1132000	5987
1133000	5999
1134000	6025
1135000	6011
1136000	5961
1137000	5933
1138000	5871
1139000	5940
1140000	6008
1141000	6032
1142000	6036
1143000	6019
1144000	5968
